{
    "bot": {
        "prefix": "lwr ",
        "cmdFolder": "./commands/",
        "statusRate": 15000,
        "developers": [
            "105096514388373504",
            "368514883962273793"
        ],
        "owner": "105096514388373504",
        "dateFormat": {
            "month": "long",
            "day": "numeric",
            "year": "numeric",
            "timeZone": "UTC"
        },
        "useragent": "NanoShinonome/mu3-0.88",
        "maxPurgeAmount": 80,
        "yenRate": 50,
        "helpTips": [
            "Join the official Nano server! https://discord.gg/Pjn6a6g",
            "Help us keep the bot running! https://www.patreon.com/nanodiscord"
        ]
    }
}