{
    "types": [
        "awoo",
        "bang",
        "blush",
        "clagwimoth",
        "cry",
        "cuddle",
        "dance",
        "hug",
        "insult",
        "jojo",
        "kiss",
        "lewd",
        "lick",
        "megumin",
        "neko",
        "nom",
        "owo",
        "pat",
        "poke",
        "pout",
        "rem",
        "shrug",
        "slap",
        "sleepy",
        "smile",
        "teehee",
        "smug",
        "stare",
        "thumbsup",
        "triggered",
        "wag",
        "waifu_insult",
        "wasted",
        "sumfuk",
        "dab",
        "tickle",
        "highfive",
        "banghead",
        "bite",
        "discord_memes",
        "nani",
        "initial_d",
        "delet_this",
        "poi",
        "thinking",
        "greet",
        "punch",
        "handholding",
        "kemonomimi",
        "trap",
        "deredere",
        "animal_cat",
        "animal_dog",
        "baka"
    ]
}